{
  "data": {
    "endRow": 10,
    "firstPage": 1,
    "hasNextPage": true,
    "hasPreviousPage": false,
    "isFirstPage": true,
    "isLastPage": false,
    "lastPage": 8,
    "list": [
      {
        "addInvoiceFlag": "Y",
        "applicantEmail": "liyue.01@bytedance.com",
        "applicantMobile": "",
        "applicantName": "李乐",
        "applyBy": "李乐",
        "applyType": "BUYER",
        "applyTypeName": "",
        "bankPayDate": null,
        "businessApprovedDate": null,
        "businessApprovedFlag": "N",
        "comments": "",
        "creationDate": null,
        "currencyCode": "CNY",
        "currentHandler": "",
        "erpPayDate": null,
        "financeApproved": false,
        "financeApprovedDate": null,
        "financeApprovedFlag": "N",
        "fnConfirmAmount": null,
        "fnCurrentActive": "",
        "hasReminders": "",
        "imageApprovedDate": null,
        "imageApprovedFlag": "",
        "invoiceStatus": "INV_NO",
        "needAttention": 114,
        "operateList": [],
        "payAmount": 1,
        "payInvoiceAmount": 0,
        "paySponsorCode": "",
        "paySponsorCodeName": "",
        "paymentDate": "2018-10-25",
        "paymentDesc": "31",
        "paymentHeaderId": 278094,
        "paymentNum": "PO1810250031F1",
        "paymentStatus": "SAVED",
        "paymentStatusName": "已保存",
        "paymentType": "AFTER_DELIVERY",
        "paymentTypeName": "后付款",
        "poHeaderId": 562005,
        "poOrderNum": "PO1810250031",
        "requestedAmt": null,
        "resultName": "",
        "vendorId": "V0005805",
        "vendorName": "北京宜家家居有限公司"
      },
      {
        "addInvoiceFlag": "Y",
        "applicantEmail": "zhaoyadong@bytedance.com",
        "applicantMobile": "",
        "applicantName": "赵亚东",
        "applyBy": "赵亚东",
        "applyType": "BUYER",
        "applyTypeName": "",
        "bankPayDate": null,
        "businessApprovedDate": null,
        "businessApprovedFlag": "N",
        "comments": "",
        "creationDate": null,
        "currencyCode": "CNY",
        "currentHandler": "",
        "erpPayDate": null,
        "financeApproved": false,
        "financeApprovedDate": null,
        "financeApprovedFlag": "N",
        "fnConfirmAmount": null,
        "fnCurrentActive": "",
        "hasReminders": "",
        "imageApprovedDate": null,
        "imageApprovedFlag": "",
        "invoiceStatus": "INV_NO",
        "needAttention": 114,
        "operateList": [],
        "payAmount": 20,
        "payInvoiceAmount": 0,
        "paySponsorCode": "",
        "paySponsorCodeName": "",
        "paymentDate": "2018-10-25",
        "paymentDesc": "111",
        "paymentHeaderId": 278093,
        "paymentNum": "PO1810250027F1",
        "paymentStatus": "SUBMITTED",
        "paymentStatusName": "业务审批中",
        "paymentType": "AFTER_DELIVERY",
        "paymentTypeName": "后付款",
        "poHeaderId": 562001,
        "poOrderNum": "PO1810250027",
        "requestedAmt": null,
        "resultName": "",
        "vendorId": "V0005805",
        "vendorName": "北京宜家家居有限公司"
      },
      {
        "addInvoiceFlag": "Y",
        "applicantEmail": "zhaoyadong@bytedance.com",
        "applicantMobile": "",
        "applicantName": "赵亚东",
        "applyBy": "赵亚东",
        "applyType": "BUYER",
        "applyTypeName": "",
        "bankPayDate": null,
        "businessApprovedDate": null,
        "businessApprovedFlag": "N",
        "comments": "",
        "creationDate": null,
        "currencyCode": "CNY",
        "currentHandler": "",
        "erpPayDate": null,
        "financeApproved": false,
        "financeApprovedDate": null,
        "financeApprovedFlag": "N",
        "fnConfirmAmount": null,
        "fnCurrentActive": "",
        "hasReminders": "",
        "imageApprovedDate": null,
        "imageApprovedFlag": "",
        "invoiceStatus": "INV_COMPLETE",
        "needAttention": 114,
        "operateList": [],
        "payAmount": 45,
        "payInvoiceAmount": 45,
        "paySponsorCode": "",
        "paySponsorCodeName": "",
        "paymentDate": "2018-10-25",
        "paymentDesc": "刘文的付款测试数据",
        "paymentHeaderId": 277096,
        "paymentNum": "PO1810250006F1",
        "paymentStatus": "SAVED",
        "paymentStatusName": "已保存",
        "paymentType": "AFTER_DELIVERY",
        "paymentTypeName": "后付款",
        "poHeaderId": 559005,
        "poOrderNum": "PO1810250006",
        "requestedAmt": null,
        "resultName": "",
        "vendorId": "V0005805",
        "vendorName": "北京宜家家居有限公司"
      },
      {
        "addInvoiceFlag": "N",
        "applicantEmail": "zhaoyadong@bytedance.com",
        "applicantMobile": "",
        "applicantName": "赵亚东",
        "applyBy": "赵亚东",
        "applyType": "BUYER",
        "applyTypeName": "",
        "bankPayDate": null,
        "businessApprovedDate": null,
        "businessApprovedFlag": "N",
        "comments": "",
        "creationDate": null,
        "currencyCode": "CNY",
        "currentHandler": "",
        "erpPayDate": null,
        "financeApproved": false,
        "financeApprovedDate": null,
        "financeApprovedFlag": "N",
        "fnConfirmAmount": null,
        "fnCurrentActive": "",
        "hasReminders": "",
        "imageApprovedDate": null,
        "imageApprovedFlag": "",
        "invoiceStatus": "INV_COMPLETE",
        "needAttention": 114,
        "operateList": [],
        "payAmount": 5,
        "payInvoiceAmount": 5,
        "paySponsorCode": "",
        "paySponsorCodeName": "",
        "paymentDate": "2018-10-25",
        "paymentDesc": "刘文的付款测试数据",
        "paymentHeaderId": 277095,
        "paymentNum": "PO1810250006Y3",
        "paymentStatus": "PAID",
        "paymentStatusName": "已支付",
        "paymentType": "ADVANCE",
        "paymentTypeName": "预付款",
        "poHeaderId": 559005,
        "poOrderNum": "PO1810250006",
        "requestedAmt": null,
        "resultName": "",
        "vendorId": "V0005805",
        "vendorName": "北京宜家家居有限公司"
      },
      {
        "addInvoiceFlag": "N",
        "applicantEmail": "zhaoyadong@bytedance.com",
        "applicantMobile": "",
        "applicantName": "赵亚东",
        "applyBy": "赵亚东",
        "applyType": "BUYER",
        "applyTypeName": "",
        "bankPayDate": null,
        "businessApprovedDate": null,
        "businessApprovedFlag": "N",
        "comments": "",
        "creationDate": null,
        "currencyCode": "CNY",
        "currentHandler": "",
        "erpPayDate": null,
        "financeApproved": false,
        "financeApprovedDate": null,
        "financeApprovedFlag": "N",
        "fnConfirmAmount": null,
        "fnCurrentActive": "",
        "hasReminders": "",
        "imageApprovedDate": null,
        "imageApprovedFlag": "",
        "invoiceStatus": "INV_NO",
        "needAttention": 114,
        "operateList": [],
        "payAmount": 15,
        "payInvoiceAmount": 0,
        "paySponsorCode": "",
        "paySponsorCodeName": "",
        "paymentDate": "2018-10-25",
        "paymentDesc": "刘文的付款测试数据",
        "paymentHeaderId": 277094,
        "paymentNum": "PO1810250006Y2",
        "paymentStatus": "PAID",
        "paymentStatusName": "已支付",
        "paymentType": "ADVANCE",
        "paymentTypeName": "预付款",
        "poHeaderId": 559005,
        "poOrderNum": "PO1810250006",
        "requestedAmt": null,
        "resultName": "",
        "vendorId": "V0005805",
        "vendorName": "北京宜家家居有限公司"
      },
      {
        "addInvoiceFlag": "N",
        "applicantEmail": "zhaoyadong@bytedance.com",
        "applicantMobile": "",
        "applicantName": "赵亚东",
        "applyBy": "赵亚东",
        "applyType": "BUYER",
        "applyTypeName": "",
        "bankPayDate": null,
        "businessApprovedDate": null,
        "businessApprovedFlag": "N",
        "comments": "",
        "creationDate": null,
        "currencyCode": "CNY",
        "currentHandler": "",
        "erpPayDate": null,
        "financeApproved": false,
        "financeApprovedDate": null,
        "financeApprovedFlag": "N",
        "fnConfirmAmount": null,
        "fnCurrentActive": "",
        "hasReminders": "",
        "imageApprovedDate": null,
        "imageApprovedFlag": "",
        "invoiceStatus": "INV_NO",
        "needAttention": 114,
        "operateList": [],
        "payAmount": 10,
        "payInvoiceAmount": 0,
        "paySponsorCode": "",
        "paySponsorCodeName": "",
        "paymentDate": "2018-10-25",
        "paymentDesc": "刘文的付款测试数据",
        "paymentHeaderId": 277093,
        "paymentNum": "PO1810250006Y1",
        "paymentStatus": "PAID",
        "paymentStatusName": "已支付",
        "paymentType": "ADVANCE",
        "paymentTypeName": "预付款",
        "poHeaderId": 559005,
        "poOrderNum": "PO1810250006",
        "requestedAmt": null,
        "resultName": "",
        "vendorId": "V0005805",
        "vendorName": "北京宜家家居有限公司"
      },
      {
        "addInvoiceFlag": "Y",
        "applicantEmail": "zhaoyuanze@bytedance.com",
        "applicantMobile": "",
        "applicantName": "赵元泽",
        "applyBy": "赵元泽",
        "applyType": "BUYER",
        "applyTypeName": "",
        "bankPayDate": null,
        "businessApprovedDate": null,
        "businessApprovedFlag": "N",
        "comments": "",
        "creationDate": null,
        "currencyCode": "CNY",
        "currentHandler": "",
        "erpPayDate": null,
        "financeApproved": false,
        "financeApprovedDate": null,
        "financeApprovedFlag": "N",
        "fnConfirmAmount": null,
        "fnCurrentActive": "",
        "hasReminders": "",
        "imageApprovedDate": null,
        "imageApprovedFlag": "",
        "invoiceStatus": "",
        "needAttention": 114,
        "operateList": [],
        "payAmount": 0,
        "payInvoiceAmount": null,
        "paySponsorCode": "",
        "paySponsorCodeName": "",
        "paymentDate": "2018-10-25",
        "paymentDesc": "23123",
        "paymentHeaderId": 276093,
        "paymentNum": "PO1810250005F1",
        "paymentStatus": "SAVED",
        "paymentStatusName": "已保存",
        "paymentType": "AFTER_DELIVERY",
        "paymentTypeName": "后付款",
        "poHeaderId": 559004,
        "poOrderNum": "PO1810250005",
        "requestedAmt": null,
        "resultName": "",
        "vendorId": "V0006072",
        "vendorName": "戴尔（中国）有限公司"
      },
      {
        "addInvoiceFlag": "Y",
        "applicantEmail": "zhaoyadong@bytedance.com",
        "applicantMobile": "",
        "applicantName": "赵亚东",
        "applyBy": "赵亚东",
        "applyType": "BUYER",
        "applyTypeName": "",
        "bankPayDate": null,
        "businessApprovedDate": null,
        "businessApprovedFlag": "N",
        "comments": "",
        "creationDate": null,
        "currencyCode": "CNY",
        "currentHandler": "",
        "erpPayDate": null,
        "financeApproved": false,
        "financeApprovedDate": null,
        "financeApprovedFlag": "N",
        "fnConfirmAmount": null,
        "fnCurrentActive": "",
        "hasReminders": "",
        "imageApprovedDate": null,
        "imageApprovedFlag": "",
        "invoiceStatus": "INV_NO",
        "needAttention": 114,
        "operateList": [],
        "payAmount": 0.4,
        "payInvoiceAmount": 0,
        "paySponsorCode": "",
        "paySponsorCodeName": "",
        "paymentDate": "2018-10-24",
        "paymentDesc": "刘文付款测试数据",
        "paymentHeaderId": 275093,
        "paymentNum": "PO1810240020F1",
        "paymentStatus": "SAVED",
        "paymentStatusName": "已保存",
        "paymentType": "AFTER_DELIVERY",
        "paymentTypeName": "后付款",
        "poHeaderId": 557002,
        "poOrderNum": "PO1810240020",
        "requestedAmt": null,
        "resultName": "",
        "vendorId": "V0006072",
        "vendorName": "戴尔（中国）有限公司"
      },
      {
        "addInvoiceFlag": "N",
        "applicantEmail": "dongchen.0618@bytedance.com",
        "applicantMobile": "",
        "applicantName": "董辰",
        "applyBy": "董辰",
        "applyType": "BUYER",
        "applyTypeName": "",
        "bankPayDate": null,
        "businessApprovedDate": null,
        "businessApprovedFlag": "N",
        "comments": "",
        "creationDate": null,
        "currencyCode": "BRL",
        "currentHandler": "",
        "erpPayDate": null,
        "financeApproved": false,
        "financeApprovedDate": null,
        "financeApprovedFlag": "N",
        "fnConfirmAmount": null,
        "fnCurrentActive": "",
        "hasReminders": "",
        "imageApprovedDate": null,
        "imageApprovedFlag": "",
        "invoiceStatus": "",
        "needAttention": 114,
        "operateList": [],
        "payAmount": 0,
        "payInvoiceAmount": null,
        "paySponsorCode": "",
        "paySponsorCodeName": "",
        "paymentDate": "2018-10-24",
        "paymentDesc": "1111",
        "paymentHeaderId": 274093,
        "paymentNum": "PO1810220005F1",
        "paymentStatus": "SAVED",
        "paymentStatusName": "已保存",
        "paymentType": "AFTER_DELIVERY",
        "paymentTypeName": "后付款",
        "poHeaderId": 547064,
        "poOrderNum": "PO1810220005",
        "requestedAmt": null,
        "resultName": "",
        "vendorId": "V0006601",
        "vendorName": "ACE Engenharia e Construções Ltda."
      },
      {
        "addInvoiceFlag": "N",
        "applicantEmail": "liyue.01@bytedance.com",
        "applicantMobile": "",
        "applicantName": "李乐",
        "applyBy": "李乐",
        "applyType": "BUYER",
        "applyTypeName": "",
        "bankPayDate": null,
        "businessApprovedDate": null,
        "businessApprovedFlag": "N",
        "comments": "",
        "creationDate": null,
        "currencyCode": "CNY",
        "currentHandler": "",
        "erpPayDate": null,
        "financeApproved": false,
        "financeApprovedDate": null,
        "financeApprovedFlag": "N",
        "fnConfirmAmount": null,
        "fnCurrentActive": "",
        "hasReminders": "",
        "imageApprovedDate": null,
        "imageApprovedFlag": "",
        "invoiceStatus": "INV_NO",
        "needAttention": 114,
        "operateList": [],
        "payAmount": 0.2,
        "payInvoiceAmount": 0,
        "paySponsorCode": "",
        "paySponsorCodeName": "",
        "paymentDate": "2018-10-23",
        "paymentDesc": "付款",
        "paymentHeaderId": 273093,
        "paymentNum": "PO1810230012Y1",
        "paymentStatus": "SUBMITTED",
        "paymentStatusName": "业务审批中",
        "paymentType": "ADVANCE",
        "paymentTypeName": "预付款",
        "poHeaderId": 550009,
        "poOrderNum": "PO1810230012",
        "requestedAmt": null,
        "resultName": "",
        "vendorId": "V0005805",
        "vendorName": "北京宜家家居有限公司"
      }
    ],
    "navigatePages": 8,
    "navigatepageNums": [
      1,
      2,
      3,
      4,
      5,
      6,
      7,
      8
    ],
    "nextPage": 2,
    "orderBy": "",
    "pageNum": 1,
    "pageSize": 10,
    "pages": 149,
    "prePage": 0,
    "size": 10,
    "startRow": 1,
    "total": 1490
  },
  "dateFmt": "",
  "debugInfo": "",
  "dic": null,
  "message": "",
  "onlyData": null,
  "session": null,
  "status": "ok",
  "total": null,
  "type": ""
}